address	what	where
age	what
alias	what
alma_mater	what	where
assistant	who
aunt	who
award	what
birth_place	what
birthdate	what	when
blood_type	what
bmi	what
brother	who
bust_size	what
classmate	who
colleague	who
company	what
cousin	who
daughter	who
degree	what
department	what
email	what
english_name	what
eye_color	what
facebook	what
father	who
flickr	what
friend	who
gender	what
grandfather	who
grandmother	who
hair_color	what
height	what
hip_size	what
hometown	what	where
honorific	what
husband	who
language	what
linkedin	what
major	what
manager	who
mobile_phone	what
mother	who
myspace	what
name	what
nationality	what
nephew	who
niece	who
occupation	what
partner	who
political_views	what
religion	what
school	what
sister	who
son	who
twitter	what
url	what
weibo	what
weight	what
wife	who
work_location	what